{
    "photos": {
        "page": 2,
        "pages": 34,
        "perpage": 30,
        "total": 1000,
        "photo": [
                  {
                  "id": "35956817894",
                  "owner": "158298054@N04",
                  "secret": "909f027aab",
                  "server": "4426",
                  "farm": 5,
                  "title": "My photos",
                  "ispublic": 1,
                  "isfriend": 0,
                  "isfamily": 0,
                  "datetaken": "2017-08-25 01:20:12",
                  "datetakengranularity": 0,
                  "datetakenunknown": "1",
                  "ownername": "markworoxobow",
                  "views": "0",
                  "url_m": "https://farm5.staticflickr.com/4426/35956817894_909f027aab.jpg",
                  "height_m": "500",
                  "width_m": "500",
                  "url_o": "https://farm5.staticflickr.com/4426/35956817894_085794e0d1_o.jpg",
                  "height_o": "1080",
                  "width_o": "1080"
                  },
                  {
                  "id": "35956817904",
                  "owner": "154096104@N05",
                  "secret": "cc35b9b80c",
                  "server": "4401",
                  "farm": 5,
                  "title": "My photos",
                  "ispublic": 1,
                  "isfriend": 0,
                  "isfamily": 0,
                  "datetaken": "2017-08-25 01:20:12",
                  "datetakengranularity": 0,
                  "datetakenunknown": "1",
                  "ownername": "smaginaizabella",
                  "views": "0",
                  "url_m": "https://farm5.staticflickr.com/4401/35956817904_cc35b9b80c.jpg",
                  "height_m": "500",
                  "width_m": "333",
                  "url_o": "https://farm5.staticflickr.com/4401/35956817904_a75e61cd83_o.jpg",
                  "height_o": "1024",
                  "width_o": "682"
                  },
                  {
                  "id": "35956819814",
                  "owner": "157648469@N08",
                  "secret": "21d8b56fb0",
                  "server": "4345",
                  "farm": 5,
                  "title": "BMW Inspiration : M6... - #BMW",
                  "ispublic": 1,
                  "isfriend": 0,
                  "isfamily": 0,
                  "datetaken": "2017-08-25 01:20:34",
                  "datetakengranularity": 0,
                  "datetakenunknown": "1",
                  "ownername": "snappy gears",
                  "views": "0",
                  "url_m": "https://farm5.staticflickr.com/4345/35956819814_21d8b56fb0.jpg",
                  "height_m": "333",
                  "width_m": "500",
                  "url_o": "https://farm5.staticflickr.com/4345/35956819814_85681de8fc_o.jpg",
                  "height_o": "490",
                  "width_o": "736"
                  },
                  {
                  "id": "35982346283",
                  "owner": "145779313@N02",
                  "secret": "f2427eccb9",
                  "server": "4386",
                  "farm": 5,
                  "title": "DSC_4134",
                  "ispublic": 1,
                  "isfriend": 0,
                  "isfamily": 0,
                  "datetaken": "2013-02-03 19:38:42",
                  "datetakengranularity": "0",
                  "datetakenunknown": "0",
                  "ownername": "gabrielebettelli56",
                  "views": "0",
                  "url_m": "https://farm5.staticflickr.com/4386/35982346283_f2427eccb9.jpg",
                  "height_m": "333",
                  "width_m": "500",
                  "url_o": "https://farm5.staticflickr.com/4386/35982346283_b85cbc93a6_o.jpg",
                  "height_o": "2832",
                  "width_o": "4256"
                  },
                  {
                  "id": "35982346673",
                  "owner": "154111082@N02",
                  "secret": "afe8b6627d",
                  "server": "4382",
                  "farm": 5,
                  "title": "Follow me",
                  "ispublic": 1,
                  "isfriend": 0,
                  "isfamily": 0,
                  "datetaken": "2017-08-25 01:20:16",
                  "datetakengranularity": 0,
                  "datetakenunknown": "1",
                  "ownername": "kkrestow",
                  "views": "0",
                  "url_m": "https://farm5.staticflickr.com/4382/35982346673_afe8b6627d.jpg",
                  "height_m": "500",
                  "width_m": "333",
                  "url_o": "https://farm5.staticflickr.com/4382/35982346673_63e7c986c0_o.jpg",
                  "height_o": "1024",
                  "width_o": "682"
                  },
                  {
                  "id": "36394417000",
                  "owner": "158104734@N02",
                  "secret": "fa79d0f6f2",
                  "server": "4390",
                  "farm": 5,
                  "title": "Follow me",
                  "ispublic": 1,
                  "isfriend": 0,
                  "isfamily": 0,
                  "datetaken": "2017-08-25 01:20:13",
                  "datetakengranularity": 0,
                  "datetakenunknown": "1",
                  "ownername": "miloslavazapadova",
                  "views": "0",
                  "url_m": "https://farm5.staticflickr.com/4390/36394417000_fa79d0f6f2.jpg",
                  "height_m": "500",
                  "width_m": "500",
                  "url_o": "https://farm5.staticflickr.com/4390/36394417000_fd956721a4_o.jpg",
                  "height_o": "604",
                  "width_o": "604"
                  },
                  {
                  "id": "36394418040",
                  "owner": "154113748@N03",
                  "secret": "3693905688",
                  "server": "4419",
                  "farm": 5,
                  "title": "Follow me",
                  "ispublic": 1,
                  "isfriend": 0,
                  "isfamily": 0,
                  "datetaken": "2017-08-25 01:20:16",
                  "datetakengranularity": 0,
                  "datetakenunknown": "1",
                  "ownername": "lanskovailona",
                  "views": "0",
                  "url_m": "https://farm5.staticflickr.com/4419/36394418040_3693905688.jpg",
                  "height_m": "488",
                  "width_m": "368",
                  "url_o": "https://farm5.staticflickr.com/4419/36394418040_aa742fd861_o.jpg",
                  "height_o": "488",
                  "width_o": "368"
                  },
                  {
                  "id": "36394419660",
                  "owner": "150519650@N07",
                  "secret": "3ab26e2731",
                  "server": "4416",
                  "farm": 5,
                  "title": "Combination of fitness machine and bike",
                  "ispublic": 1,
                  "isfriend": 0,
                  "isfamily": 0,
                  "datetaken": "2017-08-25 01:20:22",
                  "datetakengranularity": 0,
                  "datetakenunknown": "1",
                  "ownername": "azizbouj",
                  "views": "0",
                  "url_m": "https://farm5.staticflickr.com/4416/36394419660_3ab26e2731.jpg",
                  "height_m": "309",
                  "width_m": "500",
                  "url_o": "https://farm5.staticflickr.com/4416/36394419660_a6ba3f67c9_o.jpg",
                  "height_o": "494",
                  "width_o": "800"
                  },
                  {
                  "id": "36394421680",
                  "owner": "157144274@N04",
                  "secret": "b49fc44f6d",
                  "server": "4383",
                  "farm": 5,
                  "title": "Meow Files",
                  "ispublic": 1,
                  "isfriend": 0,
                  "isfamily": 0,
                  "datetaken": "2013-10-05 16:01:57",
                  "datetakengranularity": "0",
                  "datetakenunknown": "0",
                  "ownername": "jenniferlee37",
                  "views": "0",
                  "url_m": "https://farm5.staticflickr.com/4383/36394421680_b49fc44f6d.jpg",
                  "height_m": "375",
                  "width_m": "500",
                  "url_o": "https://farm5.staticflickr.com/4383/36394421680_d70c443dec_o.jpg",
                  "height_o": "2448",
                  "width_o": "3264"
                  },
                  {
                  "id": "36621275072",
                  "owner": "83508591@N08",
                  "secret": "c11ed95195",
                  "server": "4358",
                  "farm": 5,
                  "title": "IMG_0800",
                  "ispublic": 1,
                  "isfriend": 0,
                  "isfamily": 0,
                  "datetaken": "2017-07-03 20:54:00",
                  "datetakengranularity": "0",
                  "datetakenunknown": "0",
                  "ownername": "Christian Rodriguez Ocampo",
                  "views": "0",
                  "url_m": "https://farm5.staticflickr.com/4358/36621275072_c11ed95195.jpg",
                  "height_m": "333",
                  "width_m": "500",
                  "url_o": "https://farm5.staticflickr.com/4358/36621275072_276924c52d_o.jpg",
                  "height_o": "3456",
                  "width_o": "5184"
                  },
                  {
                  "id": "36621277082",
                  "owner": "154113798@N03",
                  "secret": "7474baa593",
                  "server": "4372",
                  "farm": 5,
                  "title": "Follow me",
                  "ispublic": 1,
                  "isfriend": 0,
                  "isfamily": 0,
                  "datetaken": "2017-08-25 01:20:28",
                  "datetakengranularity": 0,
                  "datetakenunknown": "1",
                  "ownername": "ina.staroselceva",
                  "views": "0",
                  "url_m": "https://farm5.staticflickr.com/4372/36621277082_7474baa593.jpg",
                  "height_m": "333",
                  "width_m": "500",
                  "url_o": "https://farm5.staticflickr.com/4372/36621277082_cf5ab859c7_o.jpg",
                  "height_o": "1707",
                  "width_o": "2560"
                  },
                  {
                  "id": "36621277562",
                  "owner": "151757834@N08",
                  "secret": "15fde86644",
                  "server": "4340",
                  "farm": 5,
                  "title": "",
                  "ispublic": 1,
                  "isfriend": 0,
                  "isfamily": 0,
                  "datetaken": "2017-08-24 09:52:43",
                  "datetakengranularity": "0",
                  "datetakenunknown": "0",
                  "ownername": "vakulapisipati",
                  "views": "0",
                  "url_m": "https://farm5.staticflickr.com/4340/36621277562_15fde86644.jpg",
                  "height_m": "500",
                  "width_m": "375",
                  "url_o": "https://farm5.staticflickr.com/4340/36621277562_c1d24405b0_o.jpg",
                  "height_o": "2448",
                  "width_o": "3264"
                  },
                  {
                  "id": "36621278252",
                  "owner": "62071007@N04",
                  "secret": "0a709081f0",
                  "server": "4354",
                  "farm": 5,
                  "title": "IMG_1232",
                  "ispublic": 1,
                  "isfriend": 0,
                  "isfamily": 0,
                  "datetaken": "2017-08-04 12:52:36",
                  "datetakengranularity": "0",
                  "datetakenunknown": "0",
                  "ownername": "Marcius II",
                  "views": "0",
                  "url_m": "https://farm5.staticflickr.com/4354/36621278252_0a709081f0.jpg",
                  "height_m": "281",
                  "width_m": "500",
                  "url_o": "https://farm5.staticflickr.com/4354/36621278252_7ceb24946f_o.jpg",
                  "height_o": "2248",
                  "width_o": "4000"
                  },
                  {
                  "id": "36621279132",
                  "owner": "151783790@N02",
                  "secret": "bfb0c31329",
                  "server": "4410",
                  "farm": 5,
                  "title": "Follow me",
                  "ispublic": 1,
                  "isfriend": 0,
                  "isfamily": 0,
                  "datetaken": "2017-08-25 01:20:35",
                  "datetakengranularity": 0,
                  "datetakenunknown": "1",
                  "ownername": "stepukowaewa",
                  "views": "0",
                  "url_m": "https://farm5.staticflickr.com/4410/36621279132_bfb0c31329.jpg",
                  "height_m": "500",
                  "width_m": "500",
                  "url_o": "https://farm5.staticflickr.com/4410/36621279132_5c753c1ced_o.jpg",
                  "height_o": "604",
                  "width_o": "604"
                  },
                  {
                  "id": "36621280252",
                  "owner": "105126147@N08",
                  "secret": "5f3e4e0943",
                  "server": "4350",
                  "farm": 5,
                  "title": "CARANTEC",
                  "ispublic": 1,
                  "isfriend": 0,
                  "isfamily": 0,
                  "datetaken": "2017-08-24 18:09:53",
                  "datetakengranularity": "0",
                  "datetakenunknown": "0",
                  "ownername": "PAPEBREIZH",
                  "views": "0",
                  "url_m": "https://farm5.staticflickr.com/4350/36621280252_5f3e4e0943.jpg",
                  "height_m": "375",
                  "width_m": "500",
                  "url_o": "https://farm5.staticflickr.com/4350/36621280252_9c63085f84_o.jpg",
                  "height_o": "2448",
                  "width_o": "3264"
                  },
                  {
                  "id": "36652139081",
                  "owner": "24339354@N08",
                  "secret": "4ea09ba5e1",
                  "server": "4398",
                  "farm": 5,
                  "title": "Catwoman",
                  "ispublic": 1,
                  "isfriend": 0,
                  "isfamily": 0,
                  "datetaken": "2017-08-23 18:19:47",
                  "datetakengranularity": "0",
                  "datetakenunknown": "0",
                  "ownername": "msx3 ~ Mattias",
                  "views": "0",
                  "url_m": "https://farm5.staticflickr.com/4398/36652139081_4ea09ba5e1.jpg",
                  "height_m": "334",
                  "width_m": "500",
                  "url_o": "https://farm5.staticflickr.com/4398/36652139081_5aef74ba06_o.jpg",
                  "height_o": "3675",
                  "width_o": "5505"
                  },
                  {
                  "id": "36652139211",
                  "owner": "49118647@N08",
                  "secret": "f8db975268",
                  "server": "4419",
                  "farm": 5,
                  "title": "CamGrab [LW2.20170825090920.jpg]",
                  "ispublic": 1,
                  "isfriend": 0,
                  "isfamily": 0,
                  "datetaken": "2017-08-25 09:19:20",
                  "datetakengranularity": "0",
                  "datetakenunknown": "0",
                  "ownername": "LambWatch!",
                  "views": "0",
                  "url_m": "https://farm5.staticflickr.com/4419/36652139211_f8db975268.jpg",
                  "height_m": "281",
                  "width_m": "500",
                  "url_o": "https://farm5.staticflickr.com/4419/36652139211_a2059748f5_o.jpg",
                  "height_o": "360",
                  "width_o": "640"
                  },
                  {
                  "id": "36652140571",
                  "owner": "151698265@N05",
                  "secret": "e953f0e3c9",
                  "server": "4345",
                  "farm": 5,
                  "title": "Acupressure by Health Near Me # https://t.co/QeGtlLa6x6...",
                  "ispublic": 1,
                  "isfriend": 0,
                  "isfamily": 0,
                  "datetaken": "2017-08-25 01:20:25",
                  "datetakengranularity": 0,
                  "datetakenunknown": "1",
                  "ownername": "Health Near Me",
                  "views": "0",
                  "url_m": "https://farm5.staticflickr.com/4345/36652140571_e953f0e3c9.jpg",
                  "height_m": "110",
                  "width_m": "352",
                  "url_o": "https://farm5.staticflickr.com/4345/36652140571_708912e692_o.png",
                  "height_o": "110",
                  "width_o": "352"
                  },
                  {
                  "id": "36652142421",
                  "owner": "153866415@N06",
                  "secret": "03fe5e9993",
                  "server": "4335",
                  "farm": 5,
                  "title": "Quotes About Love For Him : Sometimes when you love and know a person well enough, you can sometimes read th…",
                  "ispublic": 1,
                  "isfriend": 0,
                  "isfamily": 0,
                  "datetaken": "2013-04-12 03:31:06",
                  "datetakengranularity": 0,
                  "datetakenunknown": "1",
                  "ownername": "omgquotes.com",
                  "views": "0",
                  "url_m": "https://farm5.staticflickr.com/4335/36652142421_03fe5e9993.jpg",
                  "height_m": "500",
                  "width_m": "375",
                  "url_o": "https://farm5.staticflickr.com/4335/36652142421_ac7063bc50_o.jpg",
                  "height_o": "667",
                  "width_o": "500"
                  },
                  {
                  "id": "36652142641",
                  "owner": "42447273@N08",
                  "secret": "18a08ede0f",
                  "server": "4365",
                  "farm": 5,
                  "title": "_NKN5378",
                  "ispublic": 1,
                  "isfriend": 0,
                  "isfamily": 0,
                  "datetaken": "2017-08-25 16:20:38",
                  "datetakengranularity": 0,
                  "datetakenunknown": "1",
                  "ownername": "flxchenn",
                  "views": "0",
                  "url_m": "https://farm5.staticflickr.com/4365/36652142641_18a08ede0f.jpg",
                  "height_m": "333",
                  "width_m": "500",
                  "url_o": "https://farm5.staticflickr.com/4365/36652142641_0c7fa28f93_o.jpg",
                  "height_o": "681",
                  "width_o": "1024"
                  },
                  {
                  "id": "36743897326",
                  "owner": "123072322@N04",
                  "secret": "d843dd2d2e",
                  "server": "4427",
                  "farm": 5,
                  "title": "IMG_20170409_184509",
                  "ispublic": 1,
                  "isfriend": 0,
                  "isfamily": 0,
                  "datetaken": "2017-04-09 18:45:10",
                  "datetakengranularity": "0",
                  "datetakenunknown": "0",
                  "ownername": "Blackday59",
                  "views": "0",
                  "url_m": "https://farm5.staticflickr.com/4427/36743897326_d843dd2d2e.jpg",
                  "height_m": "375",
                  "width_m": "500",
                  "url_o": "https://farm5.staticflickr.com/4427/36743897326_c2f1ff2429_o.jpg",
                  "height_o": "3024",
                  "width_o": "4032"
                  },
                  {
                  "id": "36743898616",
                  "owner": "34693979@N00",
                  "secret": "62b3e2752b",
                  "server": "4363",
                  "farm": 5,
                  "title": "#howdeepisyourlove #barbi #graffiti #streetart #graffitiart #streetartphotography #streetarteverywhere #igersgraffiti #graffitilove #graffitilovers #rabbit",
                  "ispublic": 1,
                  "isfriend": 0,
                  "isfamily": 0,
                  "datetaken": "2017-08-25 10:20:14",
                  "datetakengranularity": 0,
                  "datetakenunknown": "1",
                  "ownername": "Silver  says Ciao ue!",
                  "views": "0",
                  "url_m": "https://farm5.staticflickr.com/4363/36743898616_62b3e2752b.jpg",
                  "height_m": "500",
                  "width_m": "494"
                  },
                  {
                  "id": "36743899146",
                  "owner": "151019623@N08",
                  "secret": "7f2f427e34",
                  "server": "4397",
                  "farm": 5,
                  "title": "",
                  "ispublic": 1,
                  "isfriend": 0,
                  "isfamily": 0,
                  "datetaken": "2017-01-20 15:28:09",
                  "datetakengranularity": "0",
                  "datetakenunknown": "0",
                  "ownername": "simonturner5",
                  "views": "0",
                  "url_m": "https://farm5.staticflickr.com/4397/36743899146_7f2f427e34.jpg",
                  "height_m": "375",
                  "width_m": "500",
                  "url_o": "https://farm5.staticflickr.com/4397/36743899146_0a45a7dbc1_o.jpg",
                  "height_o": "3000",
                  "width_o": "4000"
                  },
                  {
                  "id": "36743899686",
                  "owner": "158129628@N06",
                  "secret": "c3602fa83c",
                  "server": "4417",
                  "farm": 5,
                  "title": "It's me",
                  "ispublic": 1,
                  "isfriend": 0,
                  "isfamily": 0,
                  "datetaken": "2017-08-25 01:20:19",
                  "datetakengranularity": 0,
                  "datetakenunknown": "1",
                  "ownername": "gerasim.sofijskij",
                  "views": "0",
                  "url_m": "https://farm5.staticflickr.com/4417/36743899686_c3602fa83c.jpg",
                  "height_m": "333",
                  "width_m": "500",
                  "url_o": "https://farm5.staticflickr.com/4417/36743899686_6f6fac0eab_o.jpg",
                  "height_o": "1065",
                  "width_o": "1600"
                  },
                  {
                  "id": "36743900786",
                  "owner": "99207153@N06",
                  "secret": "bffe951271",
                  "server": "4391",
                  "farm": 5,
                  "title": "Vacances usa 2017",
                  "ispublic": 1,
                  "isfriend": 0,
                  "isfamily": 0,
                  "datetaken": "2017-08-18 16:06:42",
                  "datetakengranularity": "0",
                  "datetakenunknown": "0",
                  "ownername": "Geniedesalpages",
                  "views": "0",
                  "url_m": "https://farm5.staticflickr.com/4391/36743900786_bffe951271.jpg",
                  "height_m": "375",
                  "width_m": "500",
                  "url_o": "https://farm5.staticflickr.com/4391/36743900786_6a785d244b_o.jpg",
                  "height_o": "3096",
                  "width_o": "4128"
                  },
                  {
                  "id": "36743905516",
                  "owner": "144310786@N05",
                  "secret": "df617acb03",
                  "server": "4360",
                  "farm": 5,
                  "title": "Cf1RHyIVAAAuD1w",
                  "ispublic": 1,
                  "isfriend": 0,
                  "isfamily": 0,
                  "datetaken": "2017-08-25 01:20:39",
                  "datetakengranularity": 0,
                  "datetakenunknown": "1",
                  "ownername": "robertbeale999",
                  "views": "0",
                  "url_m": "https://farm5.staticflickr.com/4360/36743905516_df617acb03.jpg",
                  "height_m": "282",
                  "width_m": "500",
                  "url_o": "https://farm5.staticflickr.com/4360/36743905516_60a1e79150_o.jpg",
                  "height_o": "338",
                  "width_o": "600"
                  },
                  {
                  "id": "36791310255",
                  "owner": "149744330@N05",
                  "secret": "7d572a9f51",
                  "server": "4339",
                  "farm": 5,
                  "title": "Aperitivo Walthers",
                  "ispublic": 1,
                  "isfriend": 0,
                  "isfamily": 0,
                  "datetaken": "2017-08-24 18:33:16",
                  "datetakengranularity": "0",
                  "datetakenunknown": "0",
                  "ownername": "supersilvia1994",
                  "views": "0",
                  "url_m": "https://farm5.staticflickr.com/4339/36791310255_7d572a9f51.jpg",
                  "height_m": "500",
                  "width_m": "281",
                  "url_o": "https://farm5.staticflickr.com/4339/36791310255_970ebf056d_o.jpg",
                  "height_o": "1836",
                  "width_o": "3264"
                  },
                  {
                  "id": "36791310415",
                  "owner": "66430340@N07",
                  "secret": "3a2a3d1735",
                  "server": "4331",
                  "farm": 5,
                  "title": "Barclays Center Arena - 20170825_0415",
                  "ispublic": 1,
                  "isfriend": 0,
                  "isfamily": 0,
                  "datetaken": "2017-08-25 04:20:12",
                  "datetakengranularity": 0,
                  "datetakenunknown": "1",
                  "ownername": "atlanticyardswebcam04",
                  "views": "0",
                  "url_m": "https://farm5.staticflickr.com/4331/36791310415_3a2a3d1735.jpg",
                  "height_m": "313",
                  "width_m": "500",
                  "url_o": "https://farm5.staticflickr.com/4331/36791310415_767d72bbd2_o.jpg",
                  "height_o": "800",
                  "width_o": "1280"
                  },
                  {
                  "id": "36791312695",
                  "owner": "142714722@N02",
                  "secret": "2accfc6ff2",
                  "server": "4432",
                  "farm": 5,
                  "title": "IMG_0104 edited PE_filtered GSW",
                  "ispublic": 1,
                  "isfriend": 0,
                  "isfamily": 0,
                  "datetaken": "2013-10-24 13:34:30",
                  "datetakengranularity": "0",
                  "datetakenunknown": "0",
                  "ownername": "johnmcfall3",
                  "views": "0",
                  "url_m": "https://farm5.staticflickr.com/4432/36791312695_2accfc6ff2.jpg",
                  "height_m": "500",
                  "width_m": "368",
                  "url_o": "https://farm5.staticflickr.com/4432/36791312695_2bd7e54202_o.jpg",
                  "height_o": "800",
                  "width_o": "588"
                  },
                  {
                  "id": "36791312735",
                  "owner": "78356011@N08",
                  "secret": "81d4e53707",
                  "server": "4355",
                  "farm": 5,
                  "title": "",
                  "ispublic": 1,
                  "isfriend": 0,
                  "isfamily": 0,
                  "datetaken": "2017-06-18 21:17:18",
                  "datetakengranularity": "0",
                  "datetakenunknown": "0",
                  "ownername": "Sberg88",
                  "views": "0",
                  "url_m": "https://farm5.staticflickr.com/4355/36791312735_81d4e53707.jpg",
                  "height_m": "332",
                  "width_m": "500",
                  "url_o": "https://farm5.staticflickr.com/4355/36791312735_7201106466_o.jpg",
                  "height_o": "1536",
                  "width_o": "2312"
                  }
                  ]
    },
    "stat": "ok"
}
